…
```r
data <- read.csv(file = "data/CR3_barplot.csv",  
                 sep = ";")
data <- tibble(data)
```

### NA's


```r
data  ## 123 x 10
```

```
## # A tibble: 123 × 8
##     Porc Age   Segment Passage Segment_Age Total Spherical NonSpherical
##    <int> <chr> <chr>   <chr>   <chr>       <dbl>     <dbl>        <dbl>
##  1     5 D35   Jejunum P0      Jejunum_D35  8.60      6.60         1.99
##  2     6 D35   Jejunum P0      Jejunum_D35  9.26      5.24         4.03
##  3     7 D35   Jejunum P0      Jejunum_D35  9.26      6.49         2.78
##  4     8 D35   Jejunum P0      Jejunum_D35 11.8       8.36         3.4 
##  5     9 D21   Jejunum P0      Jejunum_D21  8.52      4.57         3.95
##  6    10 D21   Jejunum P0      Jejunum_D21  6.29      3.48         2.81
##  7    11 D21   Jejunum P0      Jejunum_D21  4.06      2.42         1.64
##  8    12 D21   Jejunum P0      Jejunum_D21  6.06      3.95         2.11
##  9    13 D35   Jejunum P0      Jejunum_D35  8.44      5.00         3.44
## 10    14 D35   Jejunum P0      Jejunum_D35 NA        NA           NA   
## # … with 113 more rows
```

```r
data[, 1:5] <- lapply(data[,1:5], factor) # indique que les huit premières colonnes sont des facteurs
data
```

```
## # A tibble: 123 × 8
##    Porc  Age   Segment Passage Segment_Age Total Spherical NonSpherical
##    <fct> <fct> <fct>   <fct>   <fct>       <dbl>     <dbl>        <dbl>
##  1 5     D35   Jejunum P0      Jejunum_D35  8.60      6.60         1.99
##  2 6     D35   Jejunum P0      Jejunum_D35  9.26      5.24         4.03
##  3 7     D35   Jejunum P0      Jejunum_D35  9.26      6.49         2.78
##  4 8     D35   Jejunum P0      Jejunum_D35 11.8       8.36         3.4 
##  5 9     D21   Jejunum P0      Jejunum_D21  8.52      4.57         3.95
##  6 10    D21   Jejunum P0      Jejunum_D21  6.29      3.48         2.81
##  7 11    D21   Jejunum P0      Jejunum_D21  4.06      2.42         1.64
##  8 12    D21   Jejunum P0      Jejunum_D21  6.06      3.95         2.11
##  9 13    D35   Jejunum P0      Jejunum_D35  8.44      5.00         3.44
## 10 14    D35   Jejunum P0      Jejunum_D35 NA        NA           NA   
## # … with 113 more rows
```
…
```r
data <- na.omit(data)  ## 122 x 10
data
```

```
## # A tibble: 122 × 8
##    Porc  Age   Segment Passage Segment_Age Total Spherical NonSpherical
##    <fct> <fct> <fct>   <fct>   <fct>       <dbl>     <dbl>        <dbl>
##  1 5     D35   Jejunum P0      Jejunum_D35  8.60      6.60         1.99
##  2 6     D35   Jejunum P0      Jejunum_D35  9.26      5.24         4.03
##  3 7     D35   Jejunum P0      Jejunum_D35  9.26      6.49         2.78
##  4 8     D35   Jejunum P0      Jejunum_D35 11.8       8.36         3.4 
##  5 9     D21   Jejunum P0      Jejunum_D21  8.52      4.57         3.95
##  6 10    D21   Jejunum P0      Jejunum_D21  6.29      3.48         2.81
##  7 11    D21   Jejunum P0      Jejunum_D21  4.06      2.42         1.64
##  8 12    D21   Jejunum P0      Jejunum_D21  6.06      3.95         2.11
##  9 13    D35   Jejunum P0      Jejunum_D35  8.44      5.00         3.44
## 10 15    D35   Jejunum P0      Jejunum_D35  7.31      4.10         3.20
## # … with 112 more rows
```
…
### Rajoute les pourcentages pourles types d'organoides


```r
data |> 
  mutate(percent_Sphe = (Spherical*100)/Total) |> 
  mutate(percent_NonSphe = (NonSpherical*100)/Total) -> data
data
```

```
## # A tibble: 122 × 10
##    Porc  Age   Segment Passage Segment_Age Total Spherical NonSpherical
##    <fct> <fct> <fct>   <fct>   <fct>       <dbl>     <dbl>        <dbl>
##  1 5     D35   Jejunum P0      Jejunum_D35  8.60      6.60         1.99
##  2 6     D35   Jejunum P0      Jejunum_D35  9.26      5.24         4.03
##  3 7     D35   Jejunum P0      Jejunum_D35  9.26      6.49         2.78
##  4 8     D35   Jejunum P0      Jejunum_D35 11.8       8.36         3.4 
##  5 9     D21   Jejunum P0      Jejunum_D21  8.52      4.57         3.95
##  6 10    D21   Jejunum P0      Jejunum_D21  6.29      3.48         2.81
##  7 11    D21   Jejunum P0      Jejunum_D21  4.06      2.42         1.64
##  8 12    D21   Jejunum P0      Jejunum_D21  6.06      3.95         2.11
##  9 13    D35   Jejunum P0      Jejunum_D35  8.44      5.00         3.44
## 10 15    D35   Jejunum P0      Jejunum_D35  7.31      4.10         3.20
## # … with 112 more rows, and 2 more variables: percent_Sphe <dbl>,
## #   percent_NonSphe <dbl>
```

### Tidy data: pivot_longer


```r
data |>  
  pivot_longer(cols = where(is.numeric),
               names_to = "Organoids_type",
               values_to = "value") -> data_tidy
data_tidy
```

```
## # A tibble: 610 × 7
##    Porc  Age   Segment Passage Segment_Age Organoids_type  value
##    <fct> <fct> <fct>   <fct>   <fct>       <chr>           <dbl>
##  1 5     D35   Jejunum P0      Jejunum_D35 Total            8.60
##  2 5     D35   Jejunum P0      Jejunum_D35 Spherical        6.60
##  3 5     D35   Jejunum P0      Jejunum_D35 NonSpherical     1.99
##  4 5     D35   Jejunum P0      Jejunum_D35 percent_Sphe    76.8 
##  5 5     D35   Jejunum P0      Jejunum_D35 percent_NonSphe 23.2 
##  6 6     D35   Jejunum P0      Jejunum_D35 Total            9.26
##  7 6     D35   Jejunum P0      Jejunum_D35 Spherical        5.24
##  8 6     D35   Jejunum P0      Jejunum_D35 NonSpherical     4.03
##  9 6     D35   Jejunum P0      Jejunum_D35 percent_Sphe    56.5 
## 10 6     D35   Jejunum P0      Jejunum_D35 percent_NonSphe 43.5 
## # … with 600 more rows
```
…
